<svg width="32" height="32" viewBox="0 0 32 32" xmlns="http://www.w3.org/2000/svg">
    <title>
        Profile
    </title>
    <path class="primary" fill="#4a4a4a" d="M5 26.081a5.652 5.652 0 0 1 3.93-5.164l3.253-1.464a1.507 1.507 0 0 0 1.049-1.436v-1.601c0-.318-.127-.625-.363-.839-.651-.588-1.952-2.023-1.957-4.089 0-.008.002-.012-.005-.016-.066-.042-.78-.525-.78-1.6 0-.996.692-1.272.854-1.322.019-.007.026-.026.019-.045-.167-.432-1.728-4.661 1.294-4.097.01.002.019-.001.024-.009.103-.165 1.274-1.899 5.077-1.899 3.983 0 4.875 2.275 3.288 6.012-.007.015-.002.031.013.038.131.053.73.35.73 1.322 0 1.061-.359 1.606-.755 1.636-.019.001-.033.013-.031.031.024.279.147 2.423-1.551 4.139a1.185 1.185 0 0 0-.363.829v1.528c0 .647.413 1.222 1.027 1.428l3.395 1.514a5.65 5.65 0 0 1 3.848 5.159v1.805a2.063 2.063 0 0 1-2.062 2.063H7.062A2.063 2.063 0 0 1 5 27.941v-1.86z"/>
</svg>
